{
  "project_info": {
    "project_number": "415246720973",
    "firebase_url": "https://goldback-3522f.firebaseio.com",
    "project_id": "goldback-3522f",
    "storage_bucket": "goldback-3522f.appspot.com"
  },
  "client": [
    {
      "client_info": {
        "mobilesdk_app_id": "1:415246720973:android:d77d5bb248175ff5",
        "android_client_info": {
          "package_name": "com.webdealer.otexconnect.goldback"
        }
      },
      "oauth_client": [
        {
          "client_id": "415246720973-v4q7lsuh2l2n6of281e3tp3evv04qnc1.apps.googleusercontent.com",
          "client_type": 3
        }
      ],
      "api_key": [
        {
          "current_key": "AIzaSyAl1KSzAAd6ziKl0I7_WdBVEZCPb7_nTkA"
        }
      ],
      "services": {
        "analytics_service": {
          "status": 1
        },
        "appinvite_service": {
          "status": 1,
          "other_platform_oauth_client": []
        },
        "ads_service": {
          "status": 2
        }
      }
    }
  ],
  "configuration_version": "1"
}